{
    "version": "https://jsonfeed.org/version/1",
    "title": "∆DTPDN",
    "description": "",
    "home_page_url": "https://adtpdn.gitlab.io",
    "feed_url": "https://adtpdn.gitlab.io/feed.json",
    "user_comment": "",
    "author": {
        "name": "∆DTPDN"
    },
    "items": [
        {
            "id": "https://adtpdn.gitlab.io/digital-paint-spidey/",
            "url": "https://adtpdn.gitlab.io/digital-paint-spidey/",
            "title": "Digital Assets: Spidey",
            "content_html": "<div class=\"gallery-wrapper\"><div class=\"gallery\"  data-is-empty=\"false\" data-translation=\"Add images\" data-columns=\"1\">\n<figure class=\"gallery__item\"><a href=\"https://adtpdn.gitlab.io/media/posts/29/gallery/Spidie.jpg\" data-size=\"3508x2480\"><img loading=\"lazy\" src=\"https://adtpdn.gitlab.io/media/posts/29/gallery/Spidie-thumbnail.jpg\" alt=\"\" width=\"768\" height=\"543\"></a></figure>\n<figure class=\"gallery__item\"><a href=\"https://adtpdn.gitlab.io/media/posts/29/gallery/03.png\" data-size=\"2048x2048\"><img loading=\"lazy\" src=\"https://adtpdn.gitlab.io/media/posts/29/gallery/03-thumbnail.png\" alt=\"\" width=\"768\" height=\"768\"></a></figure>\n<figure class=\"gallery__item\"><a href=\"https://adtpdn.gitlab.io/media/posts/29/gallery/x.jpg\" data-size=\"1080x1080\"><img loading=\"lazy\" src=\"https://adtpdn.gitlab.io/media/posts/29/gallery/x-thumbnail.jpg\" alt=\"\" width=\"768\" height=\"768\"></a></figure>\n</div></div>\n<figure class=\"post__video\"><iframe loading=\"lazy\" width=\"560\" height=\"314\" src=\"https://www.youtube.com/embed/gLiihGq5NXQ\" allowfullscreen=\"allowfullscreen\" data-mce-fragment=\"1\"></iframe></figure>",
            "image": "https://adtpdn.gitlab.io/media/posts/29/02.png",
            "author": {
                "name": "∆DTPDN"
            },
            "tags": [
                   "Illustration"
            ],
            "date_published": "2023-01-19T05:09:39+08:00",
            "date_modified": "2023-01-21T16:42:32+08:00"
        },
        {
            "id": "https://adtpdn.gitlab.io/ta-fishingnesia/",
            "url": "https://adtpdn.gitlab.io/ta-fishingnesia/",
            "title": "TA - Fishingnesia",
            "summary": "A simple 3D fishing simulation game, I've created for my university thesis&hellip;",
            "content_html": "<p>A simple 3D fishing simulation game, I've created for my university thesis using Unity 3D, the game aims for presenting endemic fish species in Indonesia, by fishing in this game, you can get to know the species of fish found in the waters around Indonesia.</p>\n<figure class=\"post__image\"><img loading=\"lazy\"  style=\"color: var(--text-primary-color); font-family: var(--editor-font-family); font-size: inherit; font-weight: var(--font-weight-normal); outline: 3px solid rgba(var(--color-primary-rgb), 0.55)  !important;\" src=\"https://adtpdn.gitlab.io/media/posts/23/Banner.png\" alt=\"\" width=\"960\" height=\"400\" sizes=\"(max-width: 1024px) 100vw, 1024px\" srcset=\"https://adtpdn.gitlab.io/media/posts/23/responsive/Banner-xs.png 300w ,https://adtpdn.gitlab.io/media/posts/23/responsive/Banner-sm.png 480w ,https://adtpdn.gitlab.io/media/posts/23/responsive/Banner-md.png 768w ,https://adtpdn.gitlab.io/media/posts/23/responsive/Banner-lg.png 1024w\"></figure>\n<p>The game itself currently available for windows, you can check on my itch.io page<br><a href=\"https://overkaffeinated.itch.io/fishingnesia\">Fishingnesia by Øverkaffeinated (itch.io)</a></p>\n<figure class=\"post__video\"><iframe loading=\"lazy\" width=\"600\" height=\"336\" src=\"https://www.youtube.com/embed/CMq_b1HouQs\" allowfullscreen=\"allowfullscreen\" data-mce-fragment=\"1\"></iframe></figure>\n<p>In-Game Preview</p>\n<div class=\"gallery-wrapper\"><div class=\"gallery\"  data-is-empty=\"false\" data-translation=\"Add images\" data-columns=\"3\">\n<figure class=\"gallery__item\"><a href=\"https://adtpdn.gitlab.io/media/posts/23/gallery/image-34.png\" data-size=\"1920x1080\"><img loading=\"lazy\" src=\"https://adtpdn.gitlab.io/media/posts/23/gallery/image-34-thumbnail.png\" alt=\"\" width=\"768\" height=\"432\"></a></figure>\n<figure class=\"gallery__item\"><a href=\"https://adtpdn.gitlab.io/media/posts/23/gallery/image-35.png\" data-size=\"1920x1080\"><img loading=\"lazy\" src=\"https://adtpdn.gitlab.io/media/posts/23/gallery/image-35-thumbnail.png\" alt=\"\" width=\"768\" height=\"432\"></a></figure>\n<figure class=\"gallery__item\"><a href=\"https://adtpdn.gitlab.io/media/posts/23/gallery/image-39.png\" data-size=\"1920x1080\"><img loading=\"lazy\" src=\"https://adtpdn.gitlab.io/media/posts/23/gallery/image-39-thumbnail.png\" alt=\"\" width=\"768\" height=\"432\"></a></figure>\n<figure class=\"gallery__item\"><a href=\"https://adtpdn.gitlab.io/media/posts/23/gallery/image-41.png\" data-size=\"1920x1080\"><img loading=\"lazy\" src=\"https://adtpdn.gitlab.io/media/posts/23/gallery/image-41-thumbnail.png\" alt=\"\" width=\"768\" height=\"432\"></a></figure>\n<figure class=\"gallery__item\"><a href=\"https://adtpdn.gitlab.io/media/posts/23/gallery/image-44.png\" data-size=\"1920x1080\"><img loading=\"lazy\" src=\"https://adtpdn.gitlab.io/media/posts/23/gallery/image-44-thumbnail.png\" alt=\"\" width=\"768\" height=\"432\"></a></figure>\n<figure class=\"gallery__item\"><a href=\"https://adtpdn.gitlab.io/media/posts/23/gallery/image-47.png\" data-size=\"1920x1080\"><img loading=\"lazy\" src=\"https://adtpdn.gitlab.io/media/posts/23/gallery/image-47-thumbnail.png\" alt=\"\" width=\"768\" height=\"432\"></a></figure>\n<figure class=\"gallery__item\"><a href=\"https://adtpdn.gitlab.io/media/posts/23/gallery/image-48.png\" data-size=\"1920x1080\"><img loading=\"lazy\" src=\"https://adtpdn.gitlab.io/media/posts/23/gallery/image-48-thumbnail.png\" alt=\"\" width=\"768\" height=\"432\"></a></figure>\n<figure class=\"gallery__item\"><a href=\"https://adtpdn.gitlab.io/media/posts/23/gallery/image-53.png\" data-size=\"1920x1080\"><img loading=\"lazy\" src=\"https://adtpdn.gitlab.io/media/posts/23/gallery/image-53-thumbnail.png\" alt=\"\" width=\"768\" height=\"432\"></a></figure>\n<figure class=\"gallery__item\"><a href=\"https://adtpdn.gitlab.io/media/posts/23/gallery/image-55.png\" data-size=\"1920x1080\"><img loading=\"lazy\" src=\"https://adtpdn.gitlab.io/media/posts/23/gallery/image-55-thumbnail.png\" alt=\"\" width=\"768\" height=\"432\"></a></figure>\n<figure class=\"gallery__item\"><a href=\"https://adtpdn.gitlab.io/media/posts/23/gallery/image-56.png\" data-size=\"1920x1080\"><img loading=\"lazy\" src=\"https://adtpdn.gitlab.io/media/posts/23/gallery/image-56-thumbnail.png\" alt=\"\" width=\"768\" height=\"432\"></a></figure>\n<figure class=\"gallery__item\"><a href=\"https://adtpdn.gitlab.io/media/posts/23/gallery/image-64.png\" data-size=\"1920x1080\"><img loading=\"lazy\" src=\"https://adtpdn.gitlab.io/media/posts/23/gallery/image-64-thumbnail.png\" alt=\"\" width=\"768\" height=\"432\"></a></figure>\n<figure class=\"gallery__item\"><a href=\"https://adtpdn.gitlab.io/media/posts/23/gallery/image-84.png\" data-size=\"1920x1080\"><img loading=\"lazy\" src=\"https://adtpdn.gitlab.io/media/posts/23/gallery/image-84-thumbnail.png\" alt=\"\" width=\"768\" height=\"432\"></a></figure>\n</div></div>\n<p>Some preview of design process</p>\n<div class=\"gallery-wrapper\"><div class=\"gallery\"  data-is-empty=\"false\" data-translation=\"Add images\" data-columns=\"3\">\n<figure class=\"gallery__item\"><a href=\"https://adtpdn.gitlab.io/media/posts/23/gallery/ASPECT-RATIO.png\" data-size=\"839x546\"><img loading=\"lazy\" src=\"https://adtpdn.gitlab.io/media/posts/23/gallery/ASPECT-RATIO-thumbnail.png\" alt=\"\" width=\"768\" height=\"500\"></a></figure>\n<figure class=\"gallery__item\"><a href=\"https://adtpdn.gitlab.io/media/posts/23/gallery/FISH-PROFILE.png\" data-size=\"840x840\"><img loading=\"lazy\" src=\"https://adtpdn.gitlab.io/media/posts/23/gallery/FISH-PROFILE-thumbnail.png\" alt=\"\" width=\"768\" height=\"768\"></a></figure>\n<figure class=\"gallery__item\"><a href=\"https://adtpdn.gitlab.io/media/posts/23/gallery/FISHING-ACTION-CAUGHT-FISH.png\" data-size=\"842x473\"><img loading=\"lazy\" src=\"https://adtpdn.gitlab.io/media/posts/23/gallery/FISHING-ACTION-CAUGHT-FISH-thumbnail.png\" alt=\"\" width=\"768\" height=\"431\"></a></figure>\n<figure class=\"gallery__item\"><a href=\"https://adtpdn.gitlab.io/media/posts/23/gallery/FISHING-ACTION.png\" data-size=\"842x711\"><img loading=\"lazy\" src=\"https://adtpdn.gitlab.io/media/posts/23/gallery/FISHING-ACTION-thumbnail.png\" alt=\"\" width=\"768\" height=\"649\"></a></figure>\n<figure class=\"gallery__item\"><a href=\"https://adtpdn.gitlab.io/media/posts/23/gallery/GAME-LOOP.png\" data-size=\"842x711\"><img loading=\"lazy\" src=\"https://adtpdn.gitlab.io/media/posts/23/gallery/GAME-LOOP-thumbnail.png\" alt=\"\" width=\"768\" height=\"649\"></a></figure>\n<figure class=\"gallery__item\"><a href=\"https://adtpdn.gitlab.io/media/posts/23/gallery/Group-423.png\" data-size=\"3840x4320\"><img loading=\"lazy\" src=\"https://adtpdn.gitlab.io/media/posts/23/gallery/Group-423-thumbnail.png\" alt=\"\" width=\"768\" height=\"864\"></a></figure>\n<figure class=\"gallery__item\"><a href=\"https://adtpdn.gitlab.io/media/posts/23/gallery/MODULAR-ENVIRONMENT.png\" data-size=\"1263x711\"><img loading=\"lazy\" src=\"https://adtpdn.gitlab.io/media/posts/23/gallery/MODULAR-ENVIRONMENT-thumbnail.png\" alt=\"\" width=\"768\" height=\"432\"></a></figure>\n<figure class=\"gallery__item\"><a href=\"https://adtpdn.gitlab.io/media/posts/23/gallery/NPC-FISH-BEHAVIOR.png\" data-size=\"842x711\"><img loading=\"lazy\" src=\"https://adtpdn.gitlab.io/media/posts/23/gallery/NPC-FISH-BEHAVIOR-thumbnail.png\" alt=\"\" width=\"768\" height=\"649\"></a></figure>\n<figure class=\"gallery__item\"><a href=\"https://adtpdn.gitlab.io/media/posts/23/gallery/Environment.png\" data-size=\"1920x1080\"><img loading=\"lazy\" src=\"https://adtpdn.gitlab.io/media/posts/23/gallery/Environment-thumbnail.png\" alt=\"\" width=\"768\" height=\"432\"></a></figure>\n<figure class=\"gallery__item\"><a href=\"https://adtpdn.gitlab.io/media/posts/23/gallery/Ikan.png\" data-size=\"1920x1080\"><img loading=\"lazy\" src=\"https://adtpdn.gitlab.io/media/posts/23/gallery/Ikan-thumbnail.png\" alt=\"\" width=\"768\" height=\"432\"></a></figure>\n<figure class=\"gallery__item\"><a href=\"https://adtpdn.gitlab.io/media/posts/23/gallery/logo.png\" data-size=\"728x310\"><img loading=\"lazy\" src=\"https://adtpdn.gitlab.io/media/posts/23/gallery/logo-thumbnail.png\" alt=\"\" width=\"728\" height=\"310\"></a></figure>\n<figure class=\"gallery__item\"><a href=\"https://adtpdn.gitlab.io/media/posts/23/gallery/Mekanik.png\" data-size=\"1920x1080\"><img loading=\"lazy\" src=\"https://adtpdn.gitlab.io/media/posts/23/gallery/Mekanik-thumbnail.png\" alt=\"\" width=\"768\" height=\"432\"></a></figure>\n</div></div>\n<p>You can view more detailed process of design available on my figma.</p>\n<p><a href=\"https://www.figma.com/file/ZCVx9BEfLQPlEdZAzSRgcQ/Fishingnesia?node-id=0%3A1&amp;t=bn0cFRptvKZdkfbb-1\" target=\"_blank\" rel=\"noopener noreferrer\">Figma - Fishingnesia</a><br><br><iframe loading=\"lazy\" width=\"691\" height=\"388\" style=\"border: 1px solid rgba(0, 0, 0, 0.1); width: 602px; height: 337px;\" src=\"https://www.figma.com/embed?embed_host=share&amp;url=https%3A%2F%2Fwww.figma.com%2Ffile%2FZCVx9BEfLQPlEdZAzSRgcQ%2FFishingnesia%3Fnode-id%3D0%253A1%26t%3Dbn0cFRptvKZdkfbb-1\" allowfullscreen=\"allowfullscreen\"></iframe>\n<hr>\n<p>Example of 3D Fish Asset<br><br></p>\n<div class=\"sketchfab-embed-wrapper\"><iframe loading=\"lazy\" width=\"692\" height=\"346\" style=\"width: 604px; height: 301px;\" title=\"Megalops Cyrinoides\" frameborder=\"0\" allowfullscreen=\"allowfullscreen\" mozallowfullscreen=\"mozallowfullscreen\" webkitallowfullscreen=\"webkitallowfullscreen\" allow=\"autoplay; fullscreen; xr-spatial-tracking\" xr-spatial-tracking=\"\" execution-while-out-of-viewport=\"\" execution-while-not-rendered=\"\" web-share=\"\" src=\"https://sketchfab.com/models/106ba78bd936462b96fe8bcdcf95e545/embed?ui_theme=dark\" data-mce-fragment=\"1\"> </iframe>\n<p style=\"font-size: 13px; font-weight: normal; margin: 5px; color: #4a4a4a;\"><a href=\"https://sketchfab.com/3d-models/megalops-cyrinoides-106ba78bd936462b96fe8bcdcf95e545?utm_medium=embed&amp;utm_campaign=share-popup&amp;utm_content=106ba78bd936462b96fe8bcdcf95e545\" target=\"_blank\" style=\"font-weight: bold; color: #1caad9;\" rel=\"noopener\"> Megalops Cyrinoides </a> by <a href=\"https://sketchfab.com/overkaffeinated?utm_medium=embed&amp;utm_campaign=share-popup&amp;utm_content=106ba78bd936462b96fe8bcdcf95e545\" target=\"_blank\" style=\"font-weight: bold; color: #1caad9;\" rel=\"noopener\"> overkaffeinated </a> on <a href=\"https://sketchfab.com?utm_medium=embed&amp;utm_campaign=share-popup&amp;utm_content=106ba78bd936462b96fe8bcdcf95e545\" target=\"_blank\" style=\"font-weight: bold; color: #1caad9;\" rel=\"noopener\">Sketchfab</a></p>\n<hr>\n<p>Software I'm using:<br>- <strong>Figma </strong>for hosting my moodboard, reference, UI, 2D vector based asset creation, etc.<br>- <strong>Adobe Photoshop</strong> for tweak, edit, create 2D raster based asset creation.<br>- <strong>Notion </strong>for listing fish species I've research on internet, and documenting my notes.<br>- <strong>zBrush</strong> for blocking, and sculpting various model for the game assets.<br>- <strong>Blender </strong>for tweaking, retopology, UV mapping, rigging, and animating.<br>- <strong>Substance Painter</strong> for texture painting.<br>- <strong>Unity3D </strong>game engine.</p>\n</div>",
            "image": "https://adtpdn.gitlab.io/media/posts/23/Splash.jpg",
            "author": {
                "name": "∆DTPDN"
            },
            "tags": [
                   "Game"
            ],
            "date_published": "2022-06-05T11:23:00+08:00",
            "date_modified": "2023-01-15T17:03:47+08:00"
        },
        {
            "id": "https://adtpdn.gitlab.io/commision-game-concept/",
            "url": "https://adtpdn.gitlab.io/commision-game-concept/",
            "title": "Commision - Game Concept",
            "content_html": "<div class=\"gallery-wrapper\"><div class=\"gallery\"  data-is-empty=\"false\" data-translation=\"Add images\" data-columns=\"3\">\n<figure class=\"gallery__item\"><a href=\"https://adtpdn.gitlab.io/media/posts/27/gallery/03.png\" data-size=\"1920x1080\"><img loading=\"lazy\" src=\"https://adtpdn.gitlab.io/media/posts/27/gallery/03-thumbnail.png\" alt=\"\" width=\"768\" height=\"432\"></a></figure>\n<figure class=\"gallery__item\"><a href=\"https://adtpdn.gitlab.io/media/posts/27/gallery/04.png\" data-size=\"1920x1080\"><img loading=\"lazy\" src=\"https://adtpdn.gitlab.io/media/posts/27/gallery/04-thumbnail.png\" alt=\"\" width=\"768\" height=\"432\"></a></figure>\n<figure class=\"gallery__item\"><a href=\"https://adtpdn.gitlab.io/media/posts/27/gallery/05.png\" data-size=\"1920x1080\"><img loading=\"lazy\" src=\"https://adtpdn.gitlab.io/media/posts/27/gallery/05-thumbnail.png\" alt=\"\" width=\"768\" height=\"432\"></a></figure>\n</div></div>\n<div class=\"gallery-wrapper\"><div class=\"gallery\"  data-is-empty=\"false\" data-translation=\"Add images\" data-columns=\"3\">\n<figure class=\"gallery__item\"><a href=\"https://adtpdn.gitlab.io/media/posts/27/gallery/Android-Large-1.png\" data-size=\"360x800\"><img loading=\"lazy\" src=\"https://adtpdn.gitlab.io/media/posts/27/gallery/Android-Large-1-thumbnail.png\" alt=\"\" width=\"360\" height=\"800\"></a></figure>\n<figure class=\"gallery__item\"><a href=\"https://adtpdn.gitlab.io/media/posts/27/gallery/Android-Large-2.png\" data-size=\"360x800\"><img loading=\"lazy\" src=\"https://adtpdn.gitlab.io/media/posts/27/gallery/Android-Large-2-thumbnail.png\" alt=\"\" width=\"360\" height=\"800\"></a></figure>\n<figure class=\"gallery__item\"><a href=\"https://adtpdn.gitlab.io/media/posts/27/gallery/Android-Large-4.png\" data-size=\"360x800\"><img loading=\"lazy\" src=\"https://adtpdn.gitlab.io/media/posts/27/gallery/Android-Large-4-thumbnail.png\" alt=\"\" width=\"360\" height=\"800\"></a></figure>\n<figure class=\"gallery__item\"><a href=\"https://adtpdn.gitlab.io/media/posts/27/gallery/Android-Large-5.png\" data-size=\"360x800\"><img loading=\"lazy\" src=\"https://adtpdn.gitlab.io/media/posts/27/gallery/Android-Large-5-thumbnail.png\" alt=\"\" width=\"360\" height=\"800\"></a></figure>\n<figure class=\"gallery__item\"><a href=\"https://adtpdn.gitlab.io/media/posts/27/gallery/Android-Large-6.png\" data-size=\"360x800\"><img loading=\"lazy\" src=\"https://adtpdn.gitlab.io/media/posts/27/gallery/Android-Large-6-thumbnail.png\" alt=\"\" width=\"360\" height=\"800\"></a></figure>\n<figure class=\"gallery__item\"><a href=\"https://adtpdn.gitlab.io/media/posts/27/gallery/Android-Large-8.png\" data-size=\"360x800\"><img loading=\"lazy\" src=\"https://adtpdn.gitlab.io/media/posts/27/gallery/Android-Large-8-thumbnail.png\" alt=\"\" width=\"360\" height=\"800\"></a></figure>\n<figure class=\"gallery__item\"><a href=\"https://adtpdn.gitlab.io/media/posts/27/gallery/Android-Large-9.png\" data-size=\"360x800\"><img loading=\"lazy\" src=\"https://adtpdn.gitlab.io/media/posts/27/gallery/Android-Large-9-thumbnail.png\" alt=\"\" width=\"360\" height=\"800\"></a></figure>\n<figure class=\"gallery__item\"><a href=\"https://adtpdn.gitlab.io/media/posts/27/gallery/Android-Large-10.png\" data-size=\"360x800\"><img loading=\"lazy\" src=\"https://adtpdn.gitlab.io/media/posts/27/gallery/Android-Large-10-thumbnail.png\" alt=\"\" width=\"360\" height=\"800\"></a></figure>\n<figure class=\"gallery__item\"><a href=\"https://adtpdn.gitlab.io/media/posts/27/gallery/Android-Large-11.png\" data-size=\"360x800\"><img loading=\"lazy\" src=\"https://adtpdn.gitlab.io/media/posts/27/gallery/Android-Large-11-thumbnail.png\" alt=\"\" width=\"360\" height=\"800\"></a></figure>\n<figure class=\"gallery__item\"><a href=\"https://adtpdn.gitlab.io/media/posts/27/gallery/Android-Large-12.png\" data-size=\"360x800\"><img loading=\"lazy\" src=\"https://adtpdn.gitlab.io/media/posts/27/gallery/Android-Large-12-thumbnail.png\" alt=\"\" width=\"360\" height=\"800\"></a></figure>\n<figure class=\"gallery__item\"><a href=\"https://adtpdn.gitlab.io/media/posts/27/gallery/Android-Large-13.png\" data-size=\"360x800\"><img loading=\"lazy\" src=\"https://adtpdn.gitlab.io/media/posts/27/gallery/Android-Large-13-thumbnail.png\" alt=\"\" width=\"360\" height=\"800\"></a></figure>\n<figure class=\"gallery__item\"><a href=\"https://adtpdn.gitlab.io/media/posts/27/gallery/Android-Large-14.png\" data-size=\"360x800\"><img loading=\"lazy\" src=\"https://adtpdn.gitlab.io/media/posts/27/gallery/Android-Large-14-thumbnail.png\" alt=\"\" width=\"360\" height=\"800\"></a></figure>\n<figure class=\"gallery__item\"><a href=\"https://adtpdn.gitlab.io/media/posts/27/gallery/Android-Large-15.png\" data-size=\"360x800\"><img loading=\"lazy\" src=\"https://adtpdn.gitlab.io/media/posts/27/gallery/Android-Large-15-thumbnail.png\" alt=\"\" width=\"360\" height=\"800\"></a></figure>\n<figure class=\"gallery__item\"><a href=\"https://adtpdn.gitlab.io/media/posts/27/gallery/Android-Large-16.png\" data-size=\"360x800\"><img loading=\"lazy\" src=\"https://adtpdn.gitlab.io/media/posts/27/gallery/Android-Large-16-thumbnail.png\" alt=\"\" width=\"360\" height=\"800\"></a></figure>\n<figure class=\"gallery__item\"><a href=\"https://adtpdn.gitlab.io/media/posts/27/gallery/Android-Large-17.png\" data-size=\"360x800\"><img loading=\"lazy\" src=\"https://adtpdn.gitlab.io/media/posts/27/gallery/Android-Large-17-thumbnail.png\" alt=\"\" width=\"360\" height=\"800\"></a></figure>\n<figure class=\"gallery__item\"><a href=\"https://adtpdn.gitlab.io/media/posts/27/gallery/Android-Large-18.png\" data-size=\"360x800\"><img loading=\"lazy\" src=\"https://adtpdn.gitlab.io/media/posts/27/gallery/Android-Large-18-thumbnail.png\" alt=\"\" width=\"360\" height=\"800\"></a></figure>\n</div></div>",
            "image": "https://adtpdn.gitlab.io/media/posts/27/02.png",
            "author": {
                "name": "∆DTPDN"
            },
            "tags": [
                   "Game"
            ],
            "date_published": "2022-01-15T19:07:00+08:00",
            "date_modified": "2023-01-15T19:09:36+08:00"
        },
        {
            "id": "https://adtpdn.gitlab.io/smt-vii-entrepreneurship/",
            "url": "https://adtpdn.gitlab.io/smt-vii-entrepreneurship/",
            "title": "SMT VII - Entrepreneurship",
            "summary": "Samsara is a 2D Side-scrolling horror game, that is based on a&hellip;",
            "content_html": "<p>Samsara is a 2D Side-scrolling horror game, that is based on a fictional story which took place in Indonesia. The game revolve around a group of friends visiting a supposedly haunted village. Once there, they got separated, and forced to find clues on how to escape while being constantly hunted by evil spirits. But the dead is not the only thing they have to be worried about, because their reality might not be what it seems to be.</p>\n<hr>\n<p>This is a team project, my jobdesk as Technical Art which listed on <a href=\"https://twotwostudio.notion.site/Jobdesk-a2b84192b8b64f43a10b233dfe3d1e29\" target=\"_blank\" rel=\"noopener noreferrer\">this notion page.</a><br>full detail about project hosted on notion.<br><br><a href=\"https://twotwostudio.notion.site/Samsara-bec478dd52b24f08a395ef7f33202014\" target=\"_blank\" rel=\"noopener noreferrer\">Check out on Notion</a></p>\n<div class=\"gallery-wrapper\"><div class=\"gallery\"  data-is-empty=\"false\" data-translation=\"Add images\" data-columns=\"3\">\n<figure class=\"gallery__item\"><a href=\"https://adtpdn.gitlab.io/media/posts/25/gallery/Screenshot-2023-01-15-183236.png\" data-size=\"962x572\"><img loading=\"lazy\" src=\"https://adtpdn.gitlab.io/media/posts/25/gallery/Screenshot-2023-01-15-183236-thumbnail.png\" alt=\"\" width=\"768\" height=\"457\"></a></figure>\n<figure class=\"gallery__item\"><a href=\"https://adtpdn.gitlab.io/media/posts/25/gallery/Screenshot-2023-01-15-183309.png\" data-size=\"962x572\"><img loading=\"lazy\" src=\"https://adtpdn.gitlab.io/media/posts/25/gallery/Screenshot-2023-01-15-183309-thumbnail.png\" alt=\"\" width=\"768\" height=\"457\"></a></figure>\n<figure class=\"gallery__item\"><a href=\"https://adtpdn.gitlab.io/media/posts/25/gallery/Screenshot-2023-01-15-183334.png\" data-size=\"962x572\"><img loading=\"lazy\" src=\"https://adtpdn.gitlab.io/media/posts/25/gallery/Screenshot-2023-01-15-183334-thumbnail.png\" alt=\"\" width=\"768\" height=\"457\"></a></figure>\n<figure class=\"gallery__item\"><a href=\"https://adtpdn.gitlab.io/media/posts/25/gallery/Screenshot-2023-01-15-183357.png\" data-size=\"962x572\"><img loading=\"lazy\" src=\"https://adtpdn.gitlab.io/media/posts/25/gallery/Screenshot-2023-01-15-183357-thumbnail.png\" alt=\"\" width=\"768\" height=\"457\"></a></figure>\n<figure class=\"gallery__item\"><a href=\"https://adtpdn.gitlab.io/media/posts/25/gallery/Screenshot-2023-01-15-183412.png\" data-size=\"962x572\"><img loading=\"lazy\" src=\"https://adtpdn.gitlab.io/media/posts/25/gallery/Screenshot-2023-01-15-183412-thumbnail.png\" alt=\"\" width=\"768\" height=\"457\"></a></figure>\n<figure class=\"gallery__item\"><a href=\"https://adtpdn.gitlab.io/media/posts/25/gallery/Screenshot-2023-01-15-183421.png\" data-size=\"962x572\"><img loading=\"lazy\" src=\"https://adtpdn.gitlab.io/media/posts/25/gallery/Screenshot-2023-01-15-183421-thumbnail.png\" alt=\"\" width=\"768\" height=\"457\"></a></figure>\n<figure class=\"gallery__item\"><a href=\"https://adtpdn.gitlab.io/media/posts/25/gallery/Screenshot-2023-01-15-183431.png\" data-size=\"962x572\"><img loading=\"lazy\" src=\"https://adtpdn.gitlab.io/media/posts/25/gallery/Screenshot-2023-01-15-183431-thumbnail.png\" alt=\"\" width=\"768\" height=\"457\"></a></figure>\n<figure class=\"gallery__item\"><a href=\"https://adtpdn.gitlab.io/media/posts/25/gallery/Screenshot-2023-01-15-183457.png\" data-size=\"962x572\"><img loading=\"lazy\" src=\"https://adtpdn.gitlab.io/media/posts/25/gallery/Screenshot-2023-01-15-183457-thumbnail.png\" alt=\"\" width=\"768\" height=\"457\"></a></figure>\n<figure class=\"gallery__item\"><a href=\"https://adtpdn.gitlab.io/media/posts/25/gallery/Screenshot-2023-01-15-183518.png\" data-size=\"962x572\"><img loading=\"lazy\" src=\"https://adtpdn.gitlab.io/media/posts/25/gallery/Screenshot-2023-01-15-183518-thumbnail.png\" alt=\"\" width=\"768\" height=\"457\"></a></figure>\n<figure class=\"gallery__item\"><a href=\"https://adtpdn.gitlab.io/media/posts/25/gallery/Screenshot-2023-01-15-183526.png\" data-size=\"962x572\"><img loading=\"lazy\" src=\"https://adtpdn.gitlab.io/media/posts/25/gallery/Screenshot-2023-01-15-183526-thumbnail.png\" alt=\"\" width=\"768\" height=\"457\"></a></figure>\n<figure class=\"gallery__item\"><a href=\"https://adtpdn.gitlab.io/media/posts/25/gallery/Screenshot-2023-01-15-183538.png\" data-size=\"962x572\"><img loading=\"lazy\" src=\"https://adtpdn.gitlab.io/media/posts/25/gallery/Screenshot-2023-01-15-183538-thumbnail.png\" alt=\"\" width=\"768\" height=\"457\"></a></figure>\n<figure class=\"gallery__item\"><a href=\"https://adtpdn.gitlab.io/media/posts/25/gallery/Screenshot-2023-01-15-183601.png\" data-size=\"962x572\"><img loading=\"lazy\" src=\"https://adtpdn.gitlab.io/media/posts/25/gallery/Screenshot-2023-01-15-183601-thumbnail.png\" alt=\"\" width=\"768\" height=\"457\"></a></figure>\n<figure class=\"gallery__item\"><a href=\"https://adtpdn.gitlab.io/media/posts/25/gallery/Screenshot-2023-01-15-183633.png\" data-size=\"962x572\"><img loading=\"lazy\" src=\"https://adtpdn.gitlab.io/media/posts/25/gallery/Screenshot-2023-01-15-183633-thumbnail.png\" alt=\"\" width=\"768\" height=\"457\"></a></figure>\n<figure class=\"gallery__item\"><a href=\"https://adtpdn.gitlab.io/media/posts/25/gallery/Screenshot-2023-01-15-183647.png\" data-size=\"962x572\"><img loading=\"lazy\" src=\"https://adtpdn.gitlab.io/media/posts/25/gallery/Screenshot-2023-01-15-183647-thumbnail.png\" alt=\"\" width=\"768\" height=\"457\"></a></figure>\n<figure class=\"gallery__item\"><a href=\"https://adtpdn.gitlab.io/media/posts/25/gallery/Screenshot-2023-01-15-183707.png\" data-size=\"962x572\"><img loading=\"lazy\" src=\"https://adtpdn.gitlab.io/media/posts/25/gallery/Screenshot-2023-01-15-183707-thumbnail.png\" alt=\"\" width=\"768\" height=\"457\"></a></figure>\n<figure class=\"gallery__item\"><a href=\"https://adtpdn.gitlab.io/media/posts/25/gallery/Screenshot-2023-01-15-183716.png\" data-size=\"962x572\"><img loading=\"lazy\" src=\"https://adtpdn.gitlab.io/media/posts/25/gallery/Screenshot-2023-01-15-183716-thumbnail.png\" alt=\"\" width=\"768\" height=\"457\"></a></figure>\n<figure class=\"gallery__item\"><a href=\"https://adtpdn.gitlab.io/media/posts/25/gallery/Screenshot-2023-01-15-183736.png\" data-size=\"962x572\"><img loading=\"lazy\" src=\"https://adtpdn.gitlab.io/media/posts/25/gallery/Screenshot-2023-01-15-183736-thumbnail.png\" alt=\"\" width=\"768\" height=\"457\"></a></figure>\n<figure class=\"gallery__item\"><a href=\"https://adtpdn.gitlab.io/media/posts/25/gallery/Screenshot-2023-01-15-183756.png\" data-size=\"962x572\"><img loading=\"lazy\" src=\"https://adtpdn.gitlab.io/media/posts/25/gallery/Screenshot-2023-01-15-183756-thumbnail.png\" alt=\"\" width=\"768\" height=\"457\"></a></figure>\n<figure class=\"gallery__item\"><a href=\"https://adtpdn.gitlab.io/media/posts/25/gallery/Screenshot-2023-01-15-183828.png\" data-size=\"962x572\"><img loading=\"lazy\" src=\"https://adtpdn.gitlab.io/media/posts/25/gallery/Screenshot-2023-01-15-183828-thumbnail.png\" alt=\"\" width=\"768\" height=\"457\"></a></figure>\n<figure class=\"gallery__item\"><a href=\"https://adtpdn.gitlab.io/media/posts/25/gallery/Screenshot-2023-01-15-183902.png\" data-size=\"962x572\"><img loading=\"lazy\" src=\"https://adtpdn.gitlab.io/media/posts/25/gallery/Screenshot-2023-01-15-183902-thumbnail.png\" alt=\"\" width=\"768\" height=\"457\"></a></figure>\n<figure class=\"gallery__item\"><a href=\"https://adtpdn.gitlab.io/media/posts/25/gallery/Slide-16_9-MAIN-MENU.png\" data-size=\"1920x1080\"><img loading=\"lazy\" src=\"https://adtpdn.gitlab.io/media/posts/25/gallery/Slide-16_9-MAIN-MENU-thumbnail.png\" alt=\"\" width=\"768\" height=\"432\"></a></figure>\n</div></div>\n<p><a href=\"https://scr1pti3.itch.io/samsara\">Samsara by scr1pti3, sneelut, Øverkaffeinated, Niv (itch.io)</a></p>",
            "image": "https://adtpdn.gitlab.io/media/posts/25/Slide-16_9-MAIN-MENU.png",
            "author": {
                "name": "∆DTPDN"
            },
            "tags": [
                   "Game"
            ],
            "date_published": "2021-08-10T18:41:00+08:00",
            "date_modified": "2023-01-15T18:46:33+08:00"
        },
        {
            "id": "https://adtpdn.gitlab.io/pixel-art-sprite/",
            "url": "https://adtpdn.gitlab.io/pixel-art-sprite/",
            "title": "Pixel Art : Sprite",
            "content_html": "<figure class=\"post__image\"><img loading=\"lazy\"  src=\"https://adtpdn.gitlab.io/media/posts/22/Punch_Right_Insta_Scaled.gif\" alt=\"\" width=\"1000\" height=\"1000\"></figure>",
            "image": "https://adtpdn.gitlab.io/media/posts/22/Walk.gif",
            "author": {
                "name": "∆DTPDN"
            },
            "tags": [
                   "Pixel"
            ],
            "date_published": "2021-06-16T19:39:09+08:00",
            "date_modified": "2023-01-15T16:35:41+08:00"
        },
        {
            "id": "https://adtpdn.gitlab.io/practice-zbrush-head-sculpt/",
            "url": "https://adtpdn.gitlab.io/practice-zbrush-head-sculpt/",
            "title": "Practice : ZBrush Head Sculpt",
            "image": "https://adtpdn.gitlab.io/media/posts/21/oh-hello.jpg",
            "author": {
                "name": "∆DTPDN"
            },
            "tags": [
                   "Illustration"
            ],
            "date_published": "2021-06-16T17:48:11+08:00",
            "date_modified": "2023-01-15T18:47:43+08:00"
        },
        {
            "id": "https://adtpdn.gitlab.io/pc-disassembly-map/",
            "url": "https://adtpdn.gitlab.io/pc-disassembly-map/",
            "title": "PC Disassembly Map",
            "content_html": "<div class=\"gallery-wrapper\"><div class=\"gallery\"  data-is-empty=\"false\" data-columns=\"3\">\n<figure class=\"gallery__item\"><a href=\"https://adtpdn.gitlab.io/media/posts/20/gallery/Preview-01-01.png\" data-size=\"1000x1000\"><img loading=\"lazy\" src=\"https://adtpdn.gitlab.io/media/posts/20/gallery/Preview-01-01-thumbnail.png\" alt=\"\" width=\"768\" height=\"768\"></a></figure>\n<figure class=\"gallery__item\"><a href=\"https://adtpdn.gitlab.io/media/posts/20/gallery/Preview-01-02.png\" data-size=\"1000x1000\"><img loading=\"lazy\" src=\"https://adtpdn.gitlab.io/media/posts/20/gallery/Preview-01-02-thumbnail.png\" alt=\"\" width=\"768\" height=\"768\"></a></figure>\n<figure class=\"gallery__item\"><a href=\"https://adtpdn.gitlab.io/media/posts/20/gallery/Preview-01-03.png\" data-size=\"1000x1000\"><img loading=\"lazy\" src=\"https://adtpdn.gitlab.io/media/posts/20/gallery/Preview-01-03-thumbnail.png\" alt=\"\" width=\"768\" height=\"768\"></a></figure>\n</div></div>",
            "image": "https://adtpdn.gitlab.io/media/posts/20/Preview-01-01.png",
            "author": {
                "name": "∆DTPDN"
            },
            "tags": [
                   "Pixel",
                   "Illustration"
            ],
            "date_published": "2021-06-16T17:40:25+08:00",
            "date_modified": "2021-06-16T17:40:25+08:00"
        },
        {
            "id": "https://adtpdn.gitlab.io/smt-v-desain-komunikasi-visual-iii/",
            "url": "https://adtpdn.gitlab.io/smt-v-desain-komunikasi-visual-iii/",
            "title": "SMT V - Desain Komunikasi Visual III",
            "content_html": "<div class=\"gallery-wrapper\"><div class=\"gallery\"  data-is-empty=\"false\" data-columns=\"3\">\n<figure class=\"gallery__item\"><a href=\"https://adtpdn.gitlab.io/media/posts/19/gallery/A5_Page-01.jpg\" data-size=\"2481x1749\"><img loading=\"lazy\" src=\"https://adtpdn.gitlab.io/media/posts/19/gallery/A5_Page-01-thumbnail.jpg\" alt=\"\" width=\"768\" height=\"541\"></a></figure>\n<figure class=\"gallery__item\"><a href=\"https://adtpdn.gitlab.io/media/posts/19/gallery/A5_Page-02.jpg\" data-size=\"2482x1749\"><img loading=\"lazy\" src=\"https://adtpdn.gitlab.io/media/posts/19/gallery/A5_Page-02-thumbnail.jpg\" alt=\"\" width=\"768\" height=\"541\"></a></figure>\n<figure class=\"gallery__item\"><a href=\"https://adtpdn.gitlab.io/media/posts/19/gallery/A5_Page-03.jpg\" data-size=\"2481x1749\"><img loading=\"lazy\" src=\"https://adtpdn.gitlab.io/media/posts/19/gallery/A5_Page-03-thumbnail.jpg\" alt=\"\" width=\"768\" height=\"541\"></a></figure>\n<figure class=\"gallery__item\"><a href=\"https://adtpdn.gitlab.io/media/posts/19/gallery/A5_Page-04.jpg\" data-size=\"2481x1749\"><img loading=\"lazy\" src=\"https://adtpdn.gitlab.io/media/posts/19/gallery/A5_Page-04-thumbnail.jpg\" alt=\"\" width=\"768\" height=\"541\"></a></figure>\n<figure class=\"gallery__item\"><a href=\"https://adtpdn.gitlab.io/media/posts/19/gallery/A5_Page-05.jpg\" data-size=\"2481x1749\"><img loading=\"lazy\" src=\"https://adtpdn.gitlab.io/media/posts/19/gallery/A5_Page-05-thumbnail.jpg\" alt=\"\" width=\"768\" height=\"541\"></a></figure>\n<figure class=\"gallery__item\"><a href=\"https://adtpdn.gitlab.io/media/posts/19/gallery/A5_Page-06.jpg\" data-size=\"2482x1749\"><img loading=\"lazy\" src=\"https://adtpdn.gitlab.io/media/posts/19/gallery/A5_Page-06-thumbnail.jpg\" alt=\"\" width=\"768\" height=\"541\"></a></figure>\n<figure class=\"gallery__item\"><a href=\"https://adtpdn.gitlab.io/media/posts/19/gallery/A5_Page-07.jpg\" data-size=\"2481x1749\"><img loading=\"lazy\" src=\"https://adtpdn.gitlab.io/media/posts/19/gallery/A5_Page-07-thumbnail.jpg\" alt=\"\" width=\"768\" height=\"541\"></a></figure>\n<figure class=\"gallery__item\"><a href=\"https://adtpdn.gitlab.io/media/posts/19/gallery/A5_Page-08.jpg\" data-size=\"2481x1749\"><img loading=\"lazy\" src=\"https://adtpdn.gitlab.io/media/posts/19/gallery/A5_Page-08-thumbnail.jpg\" alt=\"\" width=\"768\" height=\"541\"></a></figure>\n<figure class=\"gallery__item\"><a href=\"https://adtpdn.gitlab.io/media/posts/19/gallery/A5_Page-09.jpg\" data-size=\"2481x1749\"><img loading=\"lazy\" src=\"https://adtpdn.gitlab.io/media/posts/19/gallery/A5_Page-09-thumbnail.jpg\" alt=\"\" width=\"768\" height=\"541\"></a></figure>\n<figure class=\"gallery__item\"><a href=\"https://adtpdn.gitlab.io/media/posts/19/gallery/A5_Page-10.jpg\" data-size=\"2482x1749\"><img loading=\"lazy\" src=\"https://adtpdn.gitlab.io/media/posts/19/gallery/A5_Page-10-thumbnail.jpg\" alt=\"\" width=\"768\" height=\"541\"></a></figure>\n<figure class=\"gallery__item\"><a href=\"https://adtpdn.gitlab.io/media/posts/19/gallery/A5_Page-11.jpg\" data-size=\"2481x1749\"><img loading=\"lazy\" src=\"https://adtpdn.gitlab.io/media/posts/19/gallery/A5_Page-11-thumbnail.jpg\" alt=\"\" width=\"768\" height=\"541\"></a></figure>\n<figure class=\"gallery__item\"><a href=\"https://adtpdn.gitlab.io/media/posts/19/gallery/A5_Page-12.jpg\" data-size=\"2481x1749\"><img loading=\"lazy\" src=\"https://adtpdn.gitlab.io/media/posts/19/gallery/A5_Page-12-thumbnail.jpg\" alt=\"\" width=\"768\" height=\"541\"></a></figure>\n<figure class=\"gallery__item\"><a href=\"https://adtpdn.gitlab.io/media/posts/19/gallery/A5_Page-13.jpg\" data-size=\"2481x1749\"><img loading=\"lazy\" src=\"https://adtpdn.gitlab.io/media/posts/19/gallery/A5_Page-13-thumbnail.jpg\" alt=\"\" width=\"768\" height=\"541\"></a></figure>\n<figure class=\"gallery__item\"><a href=\"https://adtpdn.gitlab.io/media/posts/19/gallery/A5_Page-14.jpg\" data-size=\"2482x1749\"><img loading=\"lazy\" src=\"https://adtpdn.gitlab.io/media/posts/19/gallery/A5_Page-14-thumbnail.jpg\" alt=\"\" width=\"768\" height=\"541\"></a></figure>\n<figure class=\"gallery__item\"><a href=\"https://adtpdn.gitlab.io/media/posts/19/gallery/A5_Page-15.jpg\" data-size=\"2481x1749\"><img loading=\"lazy\" src=\"https://adtpdn.gitlab.io/media/posts/19/gallery/A5_Page-15-thumbnail.jpg\" alt=\"\" width=\"768\" height=\"541\"></a></figure>\n<figure class=\"gallery__item\"><a href=\"https://adtpdn.gitlab.io/media/posts/19/gallery/A5_Page-16.jpg\" data-size=\"2481x1749\"><img loading=\"lazy\" src=\"https://adtpdn.gitlab.io/media/posts/19/gallery/A5_Page-16-thumbnail.jpg\" alt=\"\" width=\"768\" height=\"541\"></a></figure>\n<figure class=\"gallery__item\"><a href=\"https://adtpdn.gitlab.io/media/posts/19/gallery/A5_Page-17.jpg\" data-size=\"2481x1749\"><img loading=\"lazy\" src=\"https://adtpdn.gitlab.io/media/posts/19/gallery/A5_Page-17-thumbnail.jpg\" alt=\"\" width=\"768\" height=\"541\"></a></figure>\n<figure class=\"gallery__item\"><a href=\"https://adtpdn.gitlab.io/media/posts/19/gallery/A5_Page-18.jpg\" data-size=\"2482x1749\"><img loading=\"lazy\" src=\"https://adtpdn.gitlab.io/media/posts/19/gallery/A5_Page-18-thumbnail.jpg\" alt=\"\" width=\"768\" height=\"541\"></a></figure>\n<figure class=\"gallery__item\"><a href=\"https://adtpdn.gitlab.io/media/posts/19/gallery/A5_Page-19.jpg\" data-size=\"2481x1749\"><img loading=\"lazy\" src=\"https://adtpdn.gitlab.io/media/posts/19/gallery/A5_Page-19-thumbnail.jpg\" alt=\"\" width=\"768\" height=\"541\"></a></figure>\n<figure class=\"gallery__item\"><a href=\"https://adtpdn.gitlab.io/media/posts/19/gallery/A5_Page-20.jpg\" data-size=\"2481x1749\"><img loading=\"lazy\" src=\"https://adtpdn.gitlab.io/media/posts/19/gallery/A5_Page-20-thumbnail.jpg\" alt=\"\" width=\"768\" height=\"541\"></a></figure>\n<figure class=\"gallery__item\"><a href=\"https://adtpdn.gitlab.io/media/posts/19/gallery/A5_Page-21.jpg\" data-size=\"2481x1749\"><img loading=\"lazy\" src=\"https://adtpdn.gitlab.io/media/posts/19/gallery/A5_Page-21-thumbnail.jpg\" alt=\"\" width=\"768\" height=\"541\"></a></figure>\n<figure class=\"gallery__item\"><a href=\"https://adtpdn.gitlab.io/media/posts/19/gallery/A5_Page-22.jpg\" data-size=\"2482x1749\"><img loading=\"lazy\" src=\"https://adtpdn.gitlab.io/media/posts/19/gallery/A5_Page-22-thumbnail.jpg\" alt=\"\" width=\"768\" height=\"541\"></a></figure>\n<figure class=\"gallery__item\"><a href=\"https://adtpdn.gitlab.io/media/posts/19/gallery/A5_Page-23.jpg\" data-size=\"2481x1749\"><img loading=\"lazy\" src=\"https://adtpdn.gitlab.io/media/posts/19/gallery/A5_Page-23-thumbnail.jpg\" alt=\"\" width=\"768\" height=\"541\"></a></figure>\n<figure class=\"gallery__item\"><a href=\"https://adtpdn.gitlab.io/media/posts/19/gallery/A5_Page-24.jpg\" data-size=\"2481x1749\"><img loading=\"lazy\" src=\"https://adtpdn.gitlab.io/media/posts/19/gallery/A5_Page-24-thumbnail.jpg\" alt=\"\" width=\"768\" height=\"541\"></a></figure>\n</div></div>",
            "image": "https://adtpdn.gitlab.io/media/posts/19/A5_Page-01.jpg",
            "author": {
                "name": "∆DTPDN"
            },
            "tags": [
                   "Product"
            ],
            "date_published": "2021-06-16T17:35:35+08:00",
            "date_modified": "2021-06-16T17:35:54+08:00"
        },
        {
            "id": "https://adtpdn.gitlab.io/smt-v-desain-kemasan/",
            "url": "https://adtpdn.gitlab.io/smt-v-desain-kemasan/",
            "title": "SMT V - Desain Kemasan UTS",
            "content_html": "<div class=\"gallery-wrapper\"><div class=\"gallery\"  data-is-empty=\"false\" data-columns=\"3\">\n<figure class=\"gallery__item\"><a href=\"https://adtpdn.gitlab.io/media/posts/18/gallery/A4-1.png\" data-size=\"842x595\"><img loading=\"lazy\" src=\"https://adtpdn.gitlab.io/media/posts/18/gallery/A4-1-thumbnail.png\" alt=\"\" width=\"768\" height=\"543\"></a></figure>\n<figure class=\"gallery__item\"><a href=\"https://adtpdn.gitlab.io/media/posts/18/gallery/A4-2.png\" data-size=\"842x595\"><img loading=\"lazy\" src=\"https://adtpdn.gitlab.io/media/posts/18/gallery/A4-2-thumbnail.png\" alt=\"\" width=\"768\" height=\"543\"></a></figure>\n<figure class=\"gallery__item\"><a href=\"https://adtpdn.gitlab.io/media/posts/18/gallery/A4-3.png\" data-size=\"842x595\"><img loading=\"lazy\" src=\"https://adtpdn.gitlab.io/media/posts/18/gallery/A4-3-thumbnail.png\" alt=\"\" width=\"768\" height=\"543\"></a></figure>\n<figure class=\"gallery__item\"><a href=\"https://adtpdn.gitlab.io/media/posts/18/gallery/A4-4.png\" data-size=\"842x595\"><img loading=\"lazy\" src=\"https://adtpdn.gitlab.io/media/posts/18/gallery/A4-4-thumbnail.png\" alt=\"\" width=\"768\" height=\"543\"></a></figure>\n<figure class=\"gallery__item\"><a href=\"https://adtpdn.gitlab.io/media/posts/18/gallery/A4-5.png\" data-size=\"842x595\"><img loading=\"lazy\" src=\"https://adtpdn.gitlab.io/media/posts/18/gallery/A4-5-thumbnail.png\" alt=\"\" width=\"768\" height=\"543\"></a></figure>\n<figure class=\"gallery__item\"><a href=\"https://adtpdn.gitlab.io/media/posts/18/gallery/A4-6.png\" data-size=\"842x595\"><img loading=\"lazy\" src=\"https://adtpdn.gitlab.io/media/posts/18/gallery/A4-6-thumbnail.png\" alt=\"\" width=\"768\" height=\"543\"></a></figure>\n<figure class=\"gallery__item\"><a href=\"https://adtpdn.gitlab.io/media/posts/18/gallery/A4-7.png\" data-size=\"842x595\"><img loading=\"lazy\" src=\"https://adtpdn.gitlab.io/media/posts/18/gallery/A4-7-thumbnail.png\" alt=\"\" width=\"768\" height=\"543\"></a></figure>\n<figure class=\"gallery__item\"><a href=\"https://adtpdn.gitlab.io/media/posts/18/gallery/A4-8.png\" data-size=\"842x595\"><img loading=\"lazy\" src=\"https://adtpdn.gitlab.io/media/posts/18/gallery/A4-8-thumbnail.png\" alt=\"\" width=\"768\" height=\"543\"></a></figure>\n<figure class=\"gallery__item\"><a href=\"https://adtpdn.gitlab.io/media/posts/18/gallery/A4-9.png\" data-size=\"842x595\"><img loading=\"lazy\" src=\"https://adtpdn.gitlab.io/media/posts/18/gallery/A4-9-thumbnail.png\" alt=\"\" width=\"768\" height=\"543\"></a></figure>\n<figure class=\"gallery__item\"><a href=\"https://adtpdn.gitlab.io/media/posts/18/gallery/A4-10.png\" data-size=\"842x595\"><img loading=\"lazy\" src=\"https://adtpdn.gitlab.io/media/posts/18/gallery/A4-10-thumbnail.png\" alt=\"\" width=\"768\" height=\"543\"></a></figure>\n<figure class=\"gallery__item\"><a href=\"https://adtpdn.gitlab.io/media/posts/18/gallery/A4-11.png\" data-size=\"842x595\"><img loading=\"lazy\" src=\"https://adtpdn.gitlab.io/media/posts/18/gallery/A4-11-thumbnail.png\" alt=\"\" width=\"768\" height=\"543\"></a></figure>\n<figure class=\"gallery__item\"><a href=\"https://adtpdn.gitlab.io/media/posts/18/gallery/A4-12.png\" data-size=\"842x595\"><img loading=\"lazy\" src=\"https://adtpdn.gitlab.io/media/posts/18/gallery/A4-12-thumbnail.png\" alt=\"\" width=\"768\" height=\"543\"></a></figure>\n<figure class=\"gallery__item\"><a href=\"https://adtpdn.gitlab.io/media/posts/18/gallery/A4-13.png\" data-size=\"842x595\"><img loading=\"lazy\" src=\"https://adtpdn.gitlab.io/media/posts/18/gallery/A4-13-thumbnail.png\" alt=\"\" width=\"768\" height=\"543\"></a></figure>\n<figure class=\"gallery__item\"><a href=\"https://adtpdn.gitlab.io/media/posts/18/gallery/A4-14.png\" data-size=\"842x595\"><img loading=\"lazy\" src=\"https://adtpdn.gitlab.io/media/posts/18/gallery/A4-14-thumbnail.png\" alt=\"\" width=\"768\" height=\"543\"></a></figure>\n<figure class=\"gallery__item\"><a href=\"https://adtpdn.gitlab.io/media/posts/18/gallery/A4-15.png\" data-size=\"842x595\"><img loading=\"lazy\" src=\"https://adtpdn.gitlab.io/media/posts/18/gallery/A4-15-thumbnail.png\" alt=\"\" width=\"768\" height=\"543\"></a></figure>\n<figure class=\"gallery__item\"><a href=\"https://adtpdn.gitlab.io/media/posts/18/gallery/A4-16.png\" data-size=\"842x595\"><img loading=\"lazy\" src=\"https://adtpdn.gitlab.io/media/posts/18/gallery/A4-16-thumbnail.png\" alt=\"\" width=\"768\" height=\"543\"></a></figure>\n</div></div>",
            "image": "https://adtpdn.gitlab.io/media/posts/18/Aces_High_Fix_d.jpg",
            "author": {
                "name": "∆DTPDN"
            },
            "tags": [
                   "Product",
                   "Illustration"
            ],
            "date_published": "2021-06-16T17:24:53+08:00",
            "date_modified": "2023-01-15T17:07:26+08:00"
        },
        {
            "id": "https://adtpdn.gitlab.io/smt-v-desain-interaktif/",
            "url": "https://adtpdn.gitlab.io/smt-v-desain-interaktif/",
            "title": "SMT V - Desain Interaktif",
            "summary": "This is a team project, full detail management hosted on notion. My&hellip;",
            "content_html": "<p>This is a team project, full detail management hosted on notion.<br>My role is creating the idea, guide the artist, and animator for creating their assets, provide workflow for creating the assets, convert their assets into unity-ready.</p>\n<p><a href=\"https://www.notion.so/nyctos/ae56537d7525471ab5f54d7d7282b6ff?v=20000463d9ff430398bb9298d323cf6e\" target=\"_blank\" rel=\"noopener noreferrer\">Check out on Notion</a></p>\n<p><strong>note:</strong> you can check the prototype on <a href=\"https://overkaffeinated.itch.io/nyctos\">my itch.io</a>, currently set to private, because not purpose on releasing into full version.<br><strong>password :</strong> nyctos</p>",
            "image": "https://adtpdn.gitlab.io/media/posts/17/START.jpg",
            "author": {
                "name": "∆DTPDN"
            },
            "tags": [
                   "Game"
            ],
            "date_published": "2021-06-16T17:14:57+08:00",
            "date_modified": "2023-01-15T18:47:28+08:00"
        }
    ]
}
